{
    "KPlugin": {
        "Authors": [
            {
                "Email": "albertvaka@gmail.com",
                "Name": "Albert Vaca",
                "Name[ar]": "Albert Vaca",
                "Name[az]": "Albert Vaca",
                "Name[bg]": "Albert Vaca",
                "Name[ca@valencia]": "Albert Vaca",
                "Name[ca]": "Albert Vaca",
                "Name[cs]": "Albert Vaca",
                "Name[da]": "Albert Vaca",
                "Name[de]": "Albert Vaca",
                "Name[el]": "Albert Vaca",
                "Name[en_GB]": "Albert Vaca",
                "Name[es]": "Albert Vaca",
                "Name[et]": "Albert Vaca",
                "Name[eu]": "Albert Vaca",
                "Name[fi]": "Albert Vaca",
                "Name[fr]": "Albert Vaca",
                "Name[gl]": "Albert Vaca",
                "Name[hu]": "Albert Vaca",
                "Name[ia]": "Albert Vaca",
                "Name[id]": "Albert Vaca",
                "Name[ie]": "Albert Vaca",
                "Name[is]": "Albert Vaca",
                "Name[it]": "Albert Vaca",
                "Name[ko]": "Albert Vaca",
                "Name[lt]": "Albert Vaca",
                "Name[nl]": "Albert Vaca",
                "Name[nn]": "Albert Vaca",
                "Name[pl]": "Albert Vaca",
                "Name[pt]": "Albert Vaca",
                "Name[pt_BR]": "Albert Vaca",
                "Name[ro]": "Albert Vaca",
                "Name[ru]": "Albert Vaca",
                "Name[sk]": "Albert Vaca",
                "Name[sl]": "Albert Vaca",
                "Name[sr@ijekavian]": "Алберт Вака Синтора",
                "Name[sr@ijekavianlatin]": "Albert Vaka Sintora",
                "Name[sr@latin]": "Albert Vaka Sintora",
                "Name[sr]": "Алберт Вака Синтора",
                "Name[sv]": "Albert Vaca",
                "Name[tr]": "Albert Vaca",
                "Name[uk]": "Albert Vaca",
                "Name[x-test]": "xxAlbert Vacaxx",
                "Name[zh_CN]": "Albert Vaca",
                "Name[zh_TW]": "Albert Vaca"
            }
        ],
        "Description": "Receive and send files, URLs or plain text easily",
        "Description[ar]": "استقبل الملفّات أو العناوين أو النّصوص الصّرفة وأرسلها بسهولة",
        "Description[az]": "Faylları, URL'ları və ya adi mətnləri asanlıqla mübadilə etmək",
        "Description[bg]": "Лесно получаване и изпращане на файлове, URL адреси или обикновен текст",
        "Description[ca@valencia]": "Rep i envia fitxers, URL o text pla amb facilitat",
        "Description[ca]": "Rep i envia fitxers, URL o text pla amb facilitat",
        "Description[cs]": "Snadno přijímejte a posílejte soubory, URL nebo čistý text",
        "Description[da]": "Modtag og send nemt filer, URL'er eller klartekst",
        "Description[de]": "Empfang und Senden von Dateien, URLs oder einfachem Text",
        "Description[el]": "Εύκολη λήψη και αποστολή αρχείων, URL ή απλού κειμένου",
        "Description[en_GB]": "Receive and send files, URLs or plain text easily",
        "Description[es]": "Recibir y enviar archivos, URL o texto sin formato fácilmente",
        "Description[et]": "Failide, URL-ide või lihtteksti hõlpus vastuvõtmine ja saatmine",
        "Description[eu]": "Jaso eta bidali fitxategiak, URL-ak, edo testu soila erraz",
        "Description[fi]": "Vastaanota ja lähetä tiedostoja, verkko-osoitteita tai tekstiä helposti",
        "Description[fr]": "Recevoir et envoyer des fichiers, des URLs ou du texte brut facilement",
        "Description[gl]": "Comparta e reciba con facilidade ficheiros, enderezos URL ou texto simple",
        "Description[hu]": "Fájlok, URL-ek és szöveg fogadása és küldése",
        "Description[ia]": "Recipe e invia files, URLs o texto pln facilemente",
        "Description[id]": "Terima dan kirim berkas, URL atau teks biasa dengan mudah",
        "Description[is]": "Taktu á móti og sendu skrár, slóðir eða hreinan texta á einfaldan hátt",
        "Description[it]": "Riceve e invia facilmente file, URL o testo semplice",
        "Description[ja]": "ファイルや URL、プレーンテキストを簡単に送受信",
        "Description[ko]": "파일, URL, 일반 텍스트 공유하고 받기",
        "Description[lt]": "Lengvai gauti ir siųsti failus, URL adresus ar gryną tekstą",
        "Description[nl]": "Bestanden, URL's of platte tekst gemakkelijk ontvangen en verzenden",
        "Description[nn]": "Ta imot og send filer, nettadresser og tekst på ein enkel måte",
        "Description[pl]": "Udostępnia pliki, adresy URL i zwykły tekst pomiędzy urządzeniami",
        "Description[pt]": "Receber e enviar ficheiros, URL's ou texto normal de forma simples",
        "Description[pt_BR]": "Recebe e envia facilmente arquivos, URLs ou texto simples",
        "Description[ro]": "Primește și trimite fișiere, URL-uri sau text simplu cu ușurință",
        "Description[ru]": "Получение и отправка файлов, адресов URL или простого текста",
        "Description[sk]": "Jednoduché prijímanie a odosielanie súborov, URL alebo čistého textu",
        "Description[sl]": "Enostavno prejemanje in pošiljanje datotek, spletnih naslovov ali navadnega besedila",
        "Description[sr@ijekavian]": "Примај и шаљи фајлове, УРЛ‑ове или обичан текст, са лакоћом",
        "Description[sr@ijekavianlatin]": "Primaj i šalji fajlove, URL‑ove ili običan tekst, sa lakoćom",
        "Description[sr@latin]": "Primaj i šalji fajlove, URL‑ove ili običan tekst, sa lakoćom",
        "Description[sr]": "Примај и шаљи фајлове, УРЛ‑ове или обичан текст, са лакоћом",
        "Description[sv]": "Ta emot och skicka filer, webbadresser eller vanlig text enkelt",
        "Description[tr]": "Dosyaları, adres ve düz metinleri kolayca alın ve gönderin",
        "Description[uk]": "Спрощене отримання і надсилання файлів, адрес або текстових фрагментів",
        "Description[x-test]": "xxReceive and send files, URLs or plain text easilyxx",
        "Description[zh_CN]": "简单地接收和发送文件，URL 或者文本",
        "Description[zh_TW]": "簡單地接收與傳送檔案、URL 網址或純文字檔",
        "EnabledByDefault": true,
        "Icon": "folder-network",
        "Id": "kdeconnect_share",
        "License": "GPL",
        "Name": "Share and receive",
        "Name[ar]": "شارك واستقبل",
        "Name[az]": "Mübadilə etmək",
        "Name[bg]": "Споделяне и получаване",
        "Name[ca@valencia]": "Compartix i rep",
        "Name[ca]": "Comparteix i rep",
        "Name[cs]": "Sdílet a přijímat",
        "Name[da]": "Del og modtag",
        "Name[de]": "Senden und Empfangen",
        "Name[el]": "Διαμοιρασμός και λήψη",
        "Name[en_GB]": "Share and receive",
        "Name[es]": "Compartir y recibir",
        "Name[et]": "Jagamine ja vastuvõtmine",
        "Name[eu]": "Partekatu eta jaso",
        "Name[fi]": "Jaa ja vastaanota",
        "Name[fr]": "Partager et recevoir",
        "Name[gl]": "Compartir e recibir",
        "Name[hu]": "Megosztás és fogadás",
        "Name[ia]": "Comparti e recipe",
        "Name[id]": "Bagikan dan terima",
        "Name[is]": "Senda og taka við",
        "Name[it]": "Condividi e ricevi",
        "Name[ja]": "共有と受信",
        "Name[ko]": "공유하고 받기",
        "Name[lt]": "Bendrinti ir gauti",
        "Name[nl]": "Delen en ontvangen",
        "Name[nn]": "Del og ta imot",
        "Name[pl]": "Pobieranie i wysyłanie",
        "Name[pt]": "Partilhar e receber",
        "Name[pt_BR]": "Compartilhar e receber",
        "Name[ro]": "Partajează și primește",
        "Name[ru]": "Общие данные и приём данных",
        "Name[sk]": "Zdieľať a prijať",
        "Name[sl]": "Deli in sprejemaj",
        "Name[sr@ijekavian]": "Дели и примај",
        "Name[sr@ijekavianlatin]": "Deli i primaj",
        "Name[sr@latin]": "Deli i primaj",
        "Name[sr]": "Дели и примај",
        "Name[sv]": "Dela och ta emot",
        "Name[tr]": "Paylaş ve al",
        "Name[uk]": "Оприлюднення і отримання",
        "Name[x-test]": "xxShare and receivexx",
        "Name[zh_CN]": "分享和接收",
        "Name[zh_TW]": "分享及接收",
        "ServiceTypes": [
            "KdeConnect/Plugin"
        ],
        "Version": "0.1",
        "Website": "https://albertvaka.wordpress.com"
    },
    "X-KDE-ConfigModule": "kdeconnect/kcms/kdeconnect_share_config",
    "X-KdeConnect-OutgoingPacketType": [
        "kdeconnect.share.request",
        "kdeconnect.share.request.update"
    ],
    "X-KdeConnect-SupportedPacketType": [
        "kdeconnect.share.request"
    ]
}
